PAPIER,SCOLAIRE,ECRITURE,ASSEMBLAGE,CLASSEMENT,PRESENTATION,BAGAGES,BUREAUTIQUE
RAMETTES,PEINTURE,STYLO,AGRAFAGE,CHEMISES,PROTEGE CAHIER,CARTABLES,CALCULATRICES
CAHIERS SPIRAL,ARDOISE,STYLO PF,ATTACHES,CLASSEURS,PROTEGE LIVRE,CHARIOTS,DOC
CAHIERS WIRO,MODELAGE,STYLO GEL,ADHESIFS,INTERCALLAIRES,PAGE DE GARDE,SAC,TABLEAU
REGISTRES,COMPTAGE,STYLO FEUTRE,DECOUPE,PORTE DOC,RELIURE,TROUSSES,BUREAUTIQUE
REPERTOIRES,DIVERS SCOLAIRE,STYLO PLUME,,BOITES ARCHIVES,RELIEUSE,PANIERS,TAMPON
CARNET,LIVRES + CD,PORTE STYLO,,KRONOS,PLASTIFIEUSE,SERVIETTES,INFORMATIQUE
BLOC PAPIER,JEUX EDUCATIFS,MARQUEUR TABLEAU,,PARAPHEURS,COURRIER,PORTE CARTES,GARNITURE DE BUREAU
COPIES DOUBLES,JEUX,MARQUEUR ARDOISE,,CORBEILLES,AFFICHAGE,BAGAGES DIVERS,DIVERS POUR BUREAU
RECHARGE CLASSEUR,,MARQUEUR FLUO,,,presentoires,PORTE GOUTE,DIVERS FOURNITURES
CALQUE,,MARQUEUR PERMANENT,,,ETIQUETTES,,
DESSIN,,MARQUEUR RETROPROJECTION,,,,,
CANSON,,MARQUEUR CD,,,,,
CREPON,,ENCRE,,,,,
BRISTOL,,CORRECTION,,,,,
CARTON,,PORTE MINE,,,,,
CELLOPHANE,,MINE,,,,,
CARBONNE,,CRAYON,,,,,
FILM RETRO,,TAILLE CRAYON,,,,,
,,GOMME,,,,,
,,TRACAGE,,,,,
