02-23-2017 @ 14:50:57 - Parsing product variations CSV.
02-23-2017 @ 14:50:57 - Finished parsing product variations CSV.
02-23-2017 @ 14:50:57 - ---
02-23-2017 @ 14:50:57 - Processing products.
02-23-2017 @ 14:50:57 - > Row 1 - preparing for import.
02-23-2017 @ 14:50:57 - > > Inserted Raw Term Size ID = 416
02-23-2017 @ 14:50:57 - > > Inserted Raw Term 1,Farbe ID = 417
02-23-2017 @ 14:50:57 - > > Inserted Raw Term Blau ID = 418
02-23-2017 @ 14:50:57 - > Skipping - no post parent set.
02-23-2017 @ 14:50:57 - > Row 2 - preparing for import.
02-23-2017 @ 14:50:57 - > > Raw Term Size ID = 416
02-23-2017 @ 14:50:57 - > > Raw Term 1,Farbe ID = 417
02-23-2017 @ 14:50:57 - > > Raw Term Blau ID = 418
02-23-2017 @ 14:50:57 - > Skipping - no post parent set.
02-23-2017 @ 14:50:57 - > Row 3 - preparing for import.
02-23-2017 @ 14:50:57 - > > Raw Term Size ID = 416
02-23-2017 @ 14:50:57 - > > Raw Term 1,Farbe ID = 417
02-23-2017 @ 14:50:57 - > > Raw Term Blau ID = 418
02-23-2017 @ 14:50:57 - > Skipping - no post parent set.
02-23-2017 @ 14:50:57 - > Row 4 - preparing for import.
02-23-2017 @ 14:50:57 - > > Raw Term Size ID = 416
02-23-2017 @ 14:50:57 - > > Raw Term 1,Farbe ID = 417
02-23-2017 @ 14:50:57 - > > Raw Term Blau ID = 418
02-23-2017 @ 14:50:57 - > Skipping - no post parent set.
02-23-2017 @ 14:50:57 - Finished processing products.
02-23-2017 @ 15:03:33 - Parsing product variations CSV.
02-23-2017 @ 15:03:33 - Finished parsing product variations CSV.
02-23-2017 @ 15:03:33 - ---
02-23-2017 @ 15:03:33 - Processing products.
02-23-2017 @ 15:03:33 - > Row 1 - preparing for import.
02-23-2017 @ 15:03:33 - > Skipping - no post parent set.
02-23-2017 @ 15:03:33 - > Row 2 - preparing for import.
02-23-2017 @ 15:03:33 - > Skipping - no post parent set.
02-23-2017 @ 15:03:33 - > Row 3 - preparing for import.
02-23-2017 @ 15:03:33 - > Skipping - no post parent set.
02-23-2017 @ 15:03:33 - > Row 4 - preparing for import.
02-23-2017 @ 15:03:33 - > Skipping - no post parent set.
02-23-2017 @ 15:03:33 - Finished processing products.
02-23-2017 @ 15:06:22 - Parsing product variations CSV.
02-23-2017 @ 15:06:22 - Finished parsing product variations CSV.
02-23-2017 @ 15:06:22 - ---
02-23-2017 @ 15:06:22 - Processing products.
02-23-2017 @ 15:06:22 - > Row 1 - preparing for import.
02-23-2017 @ 15:06:22 - > Skipping - no post parent set.
02-23-2017 @ 15:06:22 - > Row 2 - preparing for import.
02-23-2017 @ 15:06:22 - > Skipping - no post parent set.
02-23-2017 @ 15:06:22 - > Row 3 - preparing for import.
02-23-2017 @ 15:06:22 - > Skipping - no post parent set.
02-23-2017 @ 15:06:22 - > Row 4 - preparing for import.
02-23-2017 @ 15:06:22 - > Skipping - no post parent set.
02-23-2017 @ 15:06:22 - Finished processing products.
02-23-2017 @ 15:09:07 - Parsing product variations CSV.
02-23-2017 @ 15:09:07 - Finished parsing product variations CSV.
02-23-2017 @ 15:09:07 - ---
02-23-2017 @ 15:09:07 - Processing products.
02-23-2017 @ 15:09:07 - > Row 1 - preparing for import.
02-23-2017 @ 15:09:07 - > Variation parent does not exist! (#0)
02-23-2017 @ 15:09:07 - > Row 2 - preparing for import.
02-23-2017 @ 15:09:07 - > Variation parent does not exist! (#0)
02-23-2017 @ 15:09:07 - > Row 3 - preparing for import.
02-23-2017 @ 15:09:07 - > Variation parent does not exist! (#0)
02-23-2017 @ 15:09:07 - > Row 4 - preparing for import.
02-23-2017 @ 15:09:07 - > Variation parent does not exist! (#0)
02-23-2017 @ 15:09:07 - Finished processing products.
02-23-2017 @ 20:47:23 - ---[ New Import ] PHP Memory: 256 MB, WP Memory: 256 MB
02-23-2017 @ 20:47:23 - Parsing products CSV.
02-23-2017 @ 20:47:23 - Finished parsing products CSV.
02-23-2017 @ 20:47:23 - ---
02-23-2017 @ 20:47:23 - Processing products.
02-23-2017 @ 20:47:23 - > Row 1 - preparing for import.
02-23-2017 @ 20:47:23 - > > Skipping taxonomy "product_brand" - it does not exist.
02-23-2017 @ 20:47:23 - > Inserting High Heel Shoe
02-23-2017 @ 20:47:23 - > Inserted - post ID is 1631.
02-23-2017 @ 20:47:23 - > Finished importing post ID 1631.
02-23-2017 @ 20:47:23 - > Row 2 - preparing for import.
02-23-2017 @ 20:47:23 - > > Skipping taxonomy "product_brand" - it does not exist.
02-23-2017 @ 20:47:23 - > Inserting Running Shoe
02-23-2017 @ 20:47:23 - > Inserted - post ID is 1632.
02-23-2017 @ 20:47:23 - > Finished importing post ID 1632.
02-23-2017 @ 20:47:23 - Finished processing products.
02-23-2017 @ 21:38:33 - Parsing product variations CSV.
02-23-2017 @ 21:38:33 - Finished parsing product variations CSV.
02-23-2017 @ 21:38:33 - ---
02-23-2017 @ 21:38:33 - Processing products.
02-23-2017 @ 21:38:33 - > Row 1 - preparing for import.
02-23-2017 @ 21:38:33 - > Skipping - no post parent set.
02-23-2017 @ 21:38:33 - > Row 2 - preparing for import.
02-23-2017 @ 21:38:33 - > > (526) Term Sportly (product_brand) exists? -
02-23-2017 @ 21:38:33 - > > (526) Term Sportly Child (product_brand) exists? -
02-23-2017 @ 21:38:33 - > Skipping - no post parent set.
02-23-2017 @ 21:38:33 - Finished processing products.
02-23-2017 @ 21:40:11 - ---[ New Import ] PHP Memory: 256 MB, WP Memory: 256 MB
02-23-2017 @ 21:40:11 - Parsing products CSV.
02-23-2017 @ 21:40:11 - Finished parsing products CSV.
02-23-2017 @ 21:40:11 - ---
02-23-2017 @ 21:40:11 - Processing products.
02-23-2017 @ 21:40:11 - > Row 1 - preparing for import.
02-23-2017 @ 21:40:11 - > &#8220;High Heel Shoe&#8221; already exists.
02-23-2017 @ 21:40:11 - > Row 2 - preparing for import.
02-23-2017 @ 21:40:11 - > > (526) Term Sportly (product_brand) exists? Array
(
    [term_id] => 422
    [term_taxonomy_id] => 422
)

02-23-2017 @ 21:40:11 - > > (526) Term Sportly Child (product_brand) exists? Array
(
    [term_id] => 423
    [term_taxonomy_id] => 423
)

02-23-2017 @ 21:40:11 - > &#8220;Running Shoe&#8221; already exists.
02-23-2017 @ 21:40:11 - Finished processing products.
02-23-2017 @ 21:41:35 - Parsing product variations CSV.
02-23-2017 @ 21:41:35 - Finished parsing product variations CSV.
02-23-2017 @ 21:41:35 - ---
02-23-2017 @ 21:41:35 - Processing products.
02-23-2017 @ 21:41:35 - > Row 1 - preparing for import.
02-23-2017 @ 21:41:35 - > Skipping - no post parent set.
02-23-2017 @ 21:41:35 - > Row 2 - preparing for import.
02-23-2017 @ 21:41:35 - > > (526) Term Sportly (product_brand) exists? Array
(
    [term_id] => 422
    [term_taxonomy_id] => 422
)

02-23-2017 @ 21:41:35 - > > (526) Term Sportly Child (product_brand) exists? Array
(
    [term_id] => 423
    [term_taxonomy_id] => 423
)

02-23-2017 @ 21:41:35 - > Skipping - no post parent set.
02-23-2017 @ 21:41:35 - Finished processing products.
02-24-2017 @ 16:32:05 - Parsing product variations CSV.
02-24-2017 @ 16:32:05 - Finished parsing product variations CSV.
02-24-2017 @ 16:32:05 - ---
02-24-2017 @ 16:32:05 - Processing products.
02-24-2017 @ 16:32:05 - > Row 1 - preparing for import.
02-24-2017 @ 16:32:05 - > &#8220;&#8221; already exists.
02-24-2017 @ 16:32:05 - > Row 2 - preparing for import.
02-24-2017 @ 16:32:05 - > &#8220;&#8221; already exists.
02-24-2017 @ 16:32:05 - > Row 3 - preparing for import.
02-24-2017 @ 16:32:05 - > &#8220;&#8221; already exists.
02-24-2017 @ 16:32:05 - > Row 4 - preparing for import.
02-24-2017 @ 16:32:05 - > &#8220;&#8221; already exists.
02-24-2017 @ 16:32:05 - > Row 5 - preparing for import.
02-24-2017 @ 16:32:05 - > &#8220;&#8221; already exists.
02-24-2017 @ 16:32:05 - > Row 6 - preparing for import.
02-24-2017 @ 16:32:05 - > &#8220;&#8221; already exists.
02-24-2017 @ 16:32:05 - > Row 7 - preparing for import.
02-24-2017 @ 16:32:05 - > &#8220;&#8221; already exists.
02-24-2017 @ 16:32:05 - > Row 8 - preparing for import.
02-24-2017 @ 16:32:05 - > &#8220;&#8221; already exists.
02-24-2017 @ 16:32:05 - > Row 9 - preparing for import.
02-24-2017 @ 16:32:05 - > &#8220;&#8221; already exists.
02-24-2017 @ 16:32:05 - > Row 10 - preparing for import.
02-24-2017 @ 16:32:05 - > &#8220;&#8221; already exists.
02-24-2017 @ 16:32:05 - > Row 11 - preparing for import.
02-24-2017 @ 16:32:05 - > &#8220;&#8221; already exists.
02-24-2017 @ 16:32:05 - > Row 12 - preparing for import.
02-24-2017 @ 16:32:05 - > &#8220;&#8221; already exists.
02-24-2017 @ 16:32:05 - > Row 13 - preparing for import.
02-24-2017 @ 16:32:05 - > &#8220;&#8221; already exists.
02-24-2017 @ 16:32:05 - > Row 14 - preparing for import.
02-24-2017 @ 16:32:05 - > &#8220;&#8221; already exists.
02-24-2017 @ 16:32:05 - > Row 15 - preparing for import.
02-24-2017 @ 16:32:05 - > &#8220;&#8221; already exists.
02-24-2017 @ 16:32:05 - > Row 16 - preparing for import.
02-24-2017 @ 16:32:05 - > &#8220;&#8221; already exists.
02-24-2017 @ 16:32:05 - > Row 17 - preparing for import.
02-24-2017 @ 16:32:05 - > &#8220;&#8221; already exists.
02-24-2017 @ 16:32:05 - > Row 18 - preparing for import.
02-24-2017 @ 16:32:05 - > &#8220;&#8221; already exists.
02-24-2017 @ 16:32:05 - > Row 19 - preparing for import.
02-24-2017 @ 16:32:05 - > &#8220;&#8221; already exists.
02-24-2017 @ 16:32:05 - Finished processing products.
02-24-2017 @ 16:32:06 - Parsing product variations CSV.
02-24-2017 @ 16:32:06 - Finished parsing product variations CSV.
02-24-2017 @ 16:32:06 - ---
02-24-2017 @ 16:32:06 - Processing products.
02-24-2017 @ 16:32:06 - > Row 1 - preparing for import.
02-24-2017 @ 16:32:06 - > &#8220;&#8221; already exists.
02-24-2017 @ 16:32:06 - > Row 2 - preparing for import.
02-24-2017 @ 16:32:06 - > &#8220;&#8221; already exists.
02-24-2017 @ 16:32:06 - > Row 3 - preparing for import.
02-24-2017 @ 16:32:06 - > &#8220;&#8221; already exists.
02-24-2017 @ 16:32:06 - > Row 4 - preparing for import.
02-24-2017 @ 16:32:06 - > &#8220;&#8221; already exists.
02-24-2017 @ 16:32:06 - > Row 5 - preparing for import.
02-24-2017 @ 16:32:06 - > &#8220;&#8221; already exists.
02-24-2017 @ 16:32:06 - > Row 6 - preparing for import.
02-24-2017 @ 16:32:06 - > &#8220;&#8221; already exists.
02-24-2017 @ 16:32:06 - > Row 7 - preparing for import.
02-24-2017 @ 16:32:06 - > &#8220;&#8221; already exists.
02-24-2017 @ 16:32:06 - > Row 8 - preparing for import.
02-24-2017 @ 16:32:06 - > &#8220;&#8221; already exists.
02-24-2017 @ 16:32:06 - > Row 9 - preparing for import.
02-24-2017 @ 16:32:06 - > &#8220;&#8221; already exists.
02-24-2017 @ 16:32:06 - > Row 10 - preparing for import.
02-24-2017 @ 16:32:06 - > &#8220;&#8221; already exists.
02-24-2017 @ 16:32:06 - > Row 11 - preparing for import.
02-24-2017 @ 16:32:06 - > &#8220;&#8221; already exists.
02-24-2017 @ 16:32:06 - > Row 12 - preparing for import.
02-24-2017 @ 16:32:06 - > &#8220;&#8221; already exists.
02-24-2017 @ 16:32:06 - > Row 13 - preparing for import.
02-24-2017 @ 16:32:06 - > &#8220;&#8221; already exists.
02-24-2017 @ 16:32:06 - > Row 14 - preparing for import.
02-24-2017 @ 16:32:06 - > &#8220;&#8221; already exists.
02-24-2017 @ 16:32:06 - > Row 15 - preparing for import.
02-24-2017 @ 16:32:06 - > &#8220;&#8221; already exists.
02-24-2017 @ 16:32:06 - > Row 16 - preparing for import.
02-24-2017 @ 16:32:06 - > &#8220;&#8221; already exists.
02-24-2017 @ 16:32:06 - > Row 17 - preparing for import.
02-24-2017 @ 16:32:06 - > &#8220;&#8221; already exists.
02-24-2017 @ 16:32:06 - > Row 18 - preparing for import.
02-24-2017 @ 16:32:06 - > &#8220;&#8221; already exists.
02-24-2017 @ 16:32:06 - > Row 19 - preparing for import.
02-24-2017 @ 16:32:06 - > &#8220;&#8221; already exists.
02-24-2017 @ 16:32:06 - > Row 20 - preparing for import.
02-24-2017 @ 16:32:06 - > &#8220;&#8221; already exists.
02-24-2017 @ 16:32:06 - Finished processing products.
02-24-2017 @ 16:32:08 - Parsing product variations CSV.
02-24-2017 @ 16:32:08 - Finished parsing product variations CSV.
02-24-2017 @ 16:32:08 - ---
02-24-2017 @ 16:32:08 - Processing products.
02-24-2017 @ 16:32:08 - > Row 1 - preparing for import.
02-24-2017 @ 16:32:08 - > &#8220;&#8221; already exists.
02-24-2017 @ 16:32:08 - > Row 2 - preparing for import.
02-24-2017 @ 16:32:08 - > &#8220;&#8221; already exists.
02-24-2017 @ 16:32:08 - > Row 3 - preparing for import.
02-24-2017 @ 16:32:08 - > &#8220;&#8221; already exists.
02-24-2017 @ 16:32:08 - > Row 4 - preparing for import.
02-24-2017 @ 16:32:08 - > &#8220;&#8221; already exists.
02-24-2017 @ 16:32:08 - > Row 5 - preparing for import.
02-24-2017 @ 16:32:08 - > &#8220;&#8221; already exists.
02-24-2017 @ 16:32:08 - > Row 6 - preparing for import.
02-24-2017 @ 16:32:08 - > &#8220;&#8221; already exists.
02-24-2017 @ 16:32:08 - > Row 7 - preparing for import.
02-24-2017 @ 16:32:08 - > &#8220;&#8221; already exists.
02-24-2017 @ 16:32:08 - > Row 8 - preparing for import.
02-24-2017 @ 16:32:08 - > &#8220;&#8221; already exists.
02-24-2017 @ 16:32:08 - > Row 9 - preparing for import.
02-24-2017 @ 16:32:08 - > &#8220;&#8221; already exists.
02-24-2017 @ 16:32:08 - > Row 10 - preparing for import.
02-24-2017 @ 16:32:08 - > &#8220;&#8221; already exists.
02-24-2017 @ 16:32:08 - > Row 11 - preparing for import.
02-24-2017 @ 16:32:08 - > &#8220;&#8221; already exists.
02-24-2017 @ 16:32:08 - Finished processing products.
02-24-2017 @ 16:34:28 - Parsing product variations CSV.
02-24-2017 @ 16:34:28 - Finished parsing product variations CSV.
02-24-2017 @ 16:34:28 - ---
02-24-2017 @ 16:34:28 - Processing products.
02-24-2017 @ 16:34:28 - > Row 1 - preparing for import.
02-24-2017 @ 16:34:28 - > Variation parent does not exist! (#1494)
02-24-2017 @ 16:34:28 - > Row 2 - preparing for import.
02-24-2017 @ 16:34:28 - > Variation parent does not exist! (#1494)
02-24-2017 @ 16:34:28 - > Row 3 - preparing for import.
02-24-2017 @ 16:34:28 - > Variation parent does not exist! (#1494)
02-24-2017 @ 16:34:28 - > Row 4 - preparing for import.
02-24-2017 @ 16:34:28 - > Variation parent does not exist! (#1494)
02-24-2017 @ 16:34:28 - > Row 5 - preparing for import.
02-24-2017 @ 16:34:28 - > Variation parent does not exist! (#1569)
02-24-2017 @ 16:34:28 - > Row 6 - preparing for import.
02-24-2017 @ 16:34:28 - > Variation parent does not exist! (#1569)
02-24-2017 @ 16:34:28 - > Row 7 - preparing for import.
02-24-2017 @ 16:34:28 - > Variation parent does not exist! (#1569)
02-24-2017 @ 16:34:28 - > Row 8 - preparing for import.
02-24-2017 @ 16:34:28 - > Variation parent does not exist! (#1569)
02-24-2017 @ 16:34:28 - > Row 9 - preparing for import.
02-24-2017 @ 16:34:28 - > Variation parent does not exist! (#1631)
02-24-2017 @ 16:34:28 - > Row 10 - preparing for import.
02-24-2017 @ 16:34:28 - > Variation parent does not exist! (#1631)
02-24-2017 @ 16:34:28 - > Row 11 - preparing for import.
02-24-2017 @ 16:34:28 - > Variation parent does not exist! (#1631)
02-24-2017 @ 16:34:28 - > Row 12 - preparing for import.
02-24-2017 @ 16:34:28 - > Variation parent does not exist! (#1631)
02-24-2017 @ 16:34:28 - > Row 13 - preparing for import.
02-24-2017 @ 16:34:28 - > Variation parent does not exist! (#1631)
02-24-2017 @ 16:34:28 - > Row 14 - preparing for import.
02-24-2017 @ 16:34:28 - > Variation parent does not exist! (#1631)
02-24-2017 @ 16:34:28 - > Row 15 - preparing for import.
02-24-2017 @ 16:34:28 - > Variation parent does not exist! (#1631)
02-24-2017 @ 16:34:28 - > Row 16 - preparing for import.
02-24-2017 @ 16:34:28 - > Variation parent does not exist! (#1631)
02-24-2017 @ 16:34:28 - > Row 17 - preparing for import.
02-24-2017 @ 16:34:28 - > Variation parent does not exist! (#1631)
02-24-2017 @ 16:34:28 - > Row 18 - preparing for import.
02-24-2017 @ 16:34:28 - > Variation parent does not exist! (#1631)
02-24-2017 @ 16:34:28 - > Row 19 - preparing for import.
02-24-2017 @ 16:34:28 - > Variation parent does not exist! (#1631)
02-24-2017 @ 16:34:28 - Finished processing products.
02-24-2017 @ 16:34:29 - Parsing product variations CSV.
02-24-2017 @ 16:34:29 - Finished parsing product variations CSV.
02-24-2017 @ 16:34:29 - ---
02-24-2017 @ 16:34:29 - Processing products.
02-24-2017 @ 16:34:29 - > Row 1 - preparing for import.
02-24-2017 @ 16:34:29 - > Variation parent does not exist! (#1631)
02-24-2017 @ 16:34:29 - > Row 2 - preparing for import.
02-24-2017 @ 16:34:29 - > Variation parent does not exist! (#1632)
02-24-2017 @ 16:34:29 - > Row 3 - preparing for import.
02-24-2017 @ 16:34:29 - > Variation parent does not exist! (#1632)
02-24-2017 @ 16:34:29 - > Row 4 - preparing for import.
02-24-2017 @ 16:34:29 - > Variation parent does not exist! (#1632)
02-24-2017 @ 16:34:29 - > Row 5 - preparing for import.
02-24-2017 @ 16:34:29 - > Variation parent does not exist! (#1632)
02-24-2017 @ 16:34:29 - > Row 6 - preparing for import.
02-24-2017 @ 16:34:29 - > Variation parent does not exist! (#1632)
02-24-2017 @ 16:34:29 - > Row 7 - preparing for import.
02-24-2017 @ 16:34:29 - > Variation parent does not exist! (#1632)
02-24-2017 @ 16:34:29 - > Row 8 - preparing for import.
02-24-2017 @ 16:34:29 - > Variation parent does not exist! (#1632)
02-24-2017 @ 16:34:29 - > Row 9 - preparing for import.
02-24-2017 @ 16:34:29 - > Variation parent does not exist! (#1632)
02-24-2017 @ 16:34:29 - > Row 10 - preparing for import.
02-24-2017 @ 16:34:30 - > Variation parent does not exist! (#1632)
02-24-2017 @ 16:34:30 - > Row 11 - preparing for import.
02-24-2017 @ 16:34:30 - > Variation parent does not exist! (#1632)
02-24-2017 @ 16:34:30 - > Row 12 - preparing for import.
02-24-2017 @ 16:34:30 - > Variation parent does not exist! (#1632)
02-24-2017 @ 16:34:30 - > Row 13 - preparing for import.
02-24-2017 @ 16:34:30 - > Variation parent does not exist! (#1632)
02-24-2017 @ 16:34:30 - > Row 14 - preparing for import.
02-24-2017 @ 16:34:30 - > Variation parent does not exist! (#1632)
02-24-2017 @ 16:34:30 - > Row 15 - preparing for import.
02-24-2017 @ 16:34:30 - > Variation parent does not exist! (#1632)
02-24-2017 @ 16:34:30 - > Row 16 - preparing for import.
02-24-2017 @ 16:34:30 - > Variation parent does not exist! (#1632)
02-24-2017 @ 16:34:30 - > Row 17 - preparing for import.
02-24-2017 @ 16:34:30 - > Variation parent does not exist! (#1632)
02-24-2017 @ 16:34:30 - > Row 18 - preparing for import.
02-24-2017 @ 16:34:30 - > Variation parent does not exist! (#1632)
02-24-2017 @ 16:34:30 - > Row 19 - preparing for import.
02-24-2017 @ 16:34:30 - > Variation parent does not exist! (#1632)
02-24-2017 @ 16:34:30 - > Row 20 - preparing for import.
02-24-2017 @ 16:34:30 - > Variation parent does not exist! (#1632)
02-24-2017 @ 16:34:30 - Finished processing products.
02-24-2017 @ 16:34:31 - Parsing product variations CSV.
02-24-2017 @ 16:34:31 - Finished parsing product variations CSV.
02-24-2017 @ 16:34:31 - ---
02-24-2017 @ 16:34:31 - Processing products.
02-24-2017 @ 16:34:31 - > Row 1 - preparing for import.
02-24-2017 @ 16:34:31 - > Variation parent does not exist! (#1632)
02-24-2017 @ 16:34:31 - > Row 2 - preparing for import.
02-24-2017 @ 16:34:31 - > Variation parent does not exist! (#1632)
02-24-2017 @ 16:34:31 - > Row 3 - preparing for import.
02-24-2017 @ 16:34:31 - > Variation parent does not exist! (#1632)
02-24-2017 @ 16:34:31 - > Row 4 - preparing for import.
02-24-2017 @ 16:34:31 - > Variation parent does not exist! (#1632)
02-24-2017 @ 16:34:31 - > Row 5 - preparing for import.
02-24-2017 @ 16:34:31 - > Variation parent does not exist! (#1632)
02-24-2017 @ 16:34:31 - > Row 6 - preparing for import.
02-24-2017 @ 16:34:31 - > Variation parent does not exist! (#1632)
02-24-2017 @ 16:34:31 - > Row 7 - preparing for import.
02-24-2017 @ 16:34:31 - > Variation parent does not exist! (#1632)
02-24-2017 @ 16:34:31 - > Row 8 - preparing for import.
02-24-2017 @ 16:34:31 - > Variation parent does not exist! (#1632)
02-24-2017 @ 16:34:31 - > Row 9 - preparing for import.
02-24-2017 @ 16:34:31 - > Variation parent does not exist! (#1632)
02-24-2017 @ 16:34:31 - > Row 10 - preparing for import.
02-24-2017 @ 16:34:31 - > Variation parent does not exist! (#1632)
02-24-2017 @ 16:34:31 - > Row 11 - preparing for import.
02-24-2017 @ 16:34:31 - > Variation parent does not exist! (#1632)
02-24-2017 @ 16:34:31 - Finished processing products.
02-24-2017 @ 16:36:19 - Parsing product variations CSV.
02-24-2017 @ 16:36:19 - Finished parsing product variations CSV.
02-24-2017 @ 16:36:19 - ---
02-24-2017 @ 16:36:19 - Processing products.
02-24-2017 @ 16:36:19 - > Row 1 - preparing for import.
02-24-2017 @ 16:36:19 - > Variation parent does not exist! (#1494)
02-24-2017 @ 16:36:19 - > Row 2 - preparing for import.
02-24-2017 @ 16:36:19 - > Variation parent does not exist! (#1494)
02-24-2017 @ 16:36:19 - > Row 3 - preparing for import.
02-24-2017 @ 16:36:19 - > Variation parent does not exist! (#1494)
02-24-2017 @ 16:36:19 - > Row 4 - preparing for import.
02-24-2017 @ 16:36:19 - > Variation parent does not exist! (#1494)
02-24-2017 @ 16:36:19 - > Row 5 - preparing for import.
02-24-2017 @ 16:36:19 - > Variation parent does not exist! (#1569)
02-24-2017 @ 16:36:19 - > Row 6 - preparing for import.
02-24-2017 @ 16:36:19 - > Variation parent does not exist! (#1569)
02-24-2017 @ 16:36:19 - > Row 7 - preparing for import.
02-24-2017 @ 16:36:19 - > Variation parent does not exist! (#1569)
02-24-2017 @ 16:36:19 - > Row 8 - preparing for import.
02-24-2017 @ 16:36:19 - > Variation parent does not exist! (#1569)
02-24-2017 @ 16:36:19 - > Row 9 - preparing for import.
02-24-2017 @ 16:36:19 - > Variation parent does not exist! (#1631)
02-24-2017 @ 16:36:19 - > Row 10 - preparing for import.
02-24-2017 @ 16:36:19 - > Variation parent does not exist! (#1631)
02-24-2017 @ 16:36:19 - > Row 11 - preparing for import.
02-24-2017 @ 16:36:19 - > Variation parent does not exist! (#1631)
02-24-2017 @ 16:36:19 - > Row 12 - preparing for import.
02-24-2017 @ 16:36:19 - > Variation parent does not exist! (#1631)
02-24-2017 @ 16:36:19 - > Row 13 - preparing for import.
02-24-2017 @ 16:36:19 - > Variation parent does not exist! (#1631)
02-24-2017 @ 16:36:19 - > Row 14 - preparing for import.
02-24-2017 @ 16:36:19 - > Variation parent does not exist! (#1631)
02-24-2017 @ 16:36:19 - > Row 15 - preparing for import.
02-24-2017 @ 16:36:19 - > Variation parent does not exist! (#1631)
02-24-2017 @ 16:36:19 - > Row 16 - preparing for import.
02-24-2017 @ 16:36:19 - > Variation parent does not exist! (#1631)
02-24-2017 @ 16:36:19 - > Row 17 - preparing for import.
02-24-2017 @ 16:36:19 - > Variation parent does not exist! (#1631)
02-24-2017 @ 16:36:19 - > Row 18 - preparing for import.
02-24-2017 @ 16:36:19 - > Variation parent does not exist! (#1631)
02-24-2017 @ 16:36:19 - > Row 19 - preparing for import.
02-24-2017 @ 16:36:19 - > Variation parent does not exist! (#1631)
02-24-2017 @ 16:36:19 - Finished processing products.
02-24-2017 @ 16:36:21 - Parsing product variations CSV.
02-24-2017 @ 16:36:21 - Finished parsing product variations CSV.
02-24-2017 @ 16:36:21 - ---
02-24-2017 @ 16:36:21 - Processing products.
02-24-2017 @ 16:36:21 - > Row 1 - preparing for import.
02-24-2017 @ 16:36:21 - > Variation parent does not exist! (#1631)
02-24-2017 @ 16:36:21 - > Row 2 - preparing for import.
02-24-2017 @ 16:36:21 - > Variation parent does not exist! (#1632)
02-24-2017 @ 16:36:21 - > Row 3 - preparing for import.
02-24-2017 @ 16:36:21 - > Variation parent does not exist! (#1632)
02-24-2017 @ 16:36:21 - > Row 4 - preparing for import.
02-24-2017 @ 16:36:21 - > Variation parent does not exist! (#1632)
02-24-2017 @ 16:36:21 - > Row 5 - preparing for import.
02-24-2017 @ 16:36:21 - > Variation parent does not exist! (#1632)
02-24-2017 @ 16:36:21 - > Row 6 - preparing for import.
02-24-2017 @ 16:36:21 - > Variation parent does not exist! (#1632)
02-24-2017 @ 16:36:21 - > Row 7 - preparing for import.
02-24-2017 @ 16:36:21 - > Variation parent does not exist! (#1632)
02-24-2017 @ 16:36:21 - > Row 8 - preparing for import.
02-24-2017 @ 16:36:21 - > Variation parent does not exist! (#1632)
02-24-2017 @ 16:36:21 - > Row 9 - preparing for import.
02-24-2017 @ 16:36:21 - > Variation parent does not exist! (#1632)
02-24-2017 @ 16:36:21 - > Row 10 - preparing for import.
02-24-2017 @ 16:36:21 - > Variation parent does not exist! (#1632)
02-24-2017 @ 16:36:21 - > Row 11 - preparing for import.
02-24-2017 @ 16:36:21 - > Variation parent does not exist! (#1632)
02-24-2017 @ 16:36:21 - > Row 12 - preparing for import.
02-24-2017 @ 16:36:21 - > Variation parent does not exist! (#1632)
02-24-2017 @ 16:36:21 - > Row 13 - preparing for import.
02-24-2017 @ 16:36:21 - > Variation parent does not exist! (#1632)
02-24-2017 @ 16:36:21 - > Row 14 - preparing for import.
02-24-2017 @ 16:36:21 - > Variation parent does not exist! (#1632)
02-24-2017 @ 16:36:21 - > Row 15 - preparing for import.
02-24-2017 @ 16:36:21 - > Variation parent does not exist! (#1632)
02-24-2017 @ 16:36:21 - > Row 16 - preparing for import.
02-24-2017 @ 16:36:21 - > Variation parent does not exist! (#1632)
02-24-2017 @ 16:36:21 - > Row 17 - preparing for import.
02-24-2017 @ 16:36:21 - > Variation parent does not exist! (#1632)
02-24-2017 @ 16:36:21 - > Row 18 - preparing for import.
02-24-2017 @ 16:36:21 - > Variation parent does not exist! (#1632)
02-24-2017 @ 16:36:21 - > Row 19 - preparing for import.
02-24-2017 @ 16:36:21 - > Variation parent does not exist! (#1632)
02-24-2017 @ 16:36:21 - > Row 20 - preparing for import.
02-24-2017 @ 16:36:21 - > Variation parent does not exist! (#1632)
02-24-2017 @ 16:36:21 - Finished processing products.
02-24-2017 @ 16:36:22 - Parsing product variations CSV.
02-24-2017 @ 16:36:22 - Finished parsing product variations CSV.
02-24-2017 @ 16:36:22 - ---
02-24-2017 @ 16:36:22 - Processing products.
02-24-2017 @ 16:36:22 - > Row 1 - preparing for import.
02-24-2017 @ 16:36:22 - > Variation parent does not exist! (#1632)
02-24-2017 @ 16:36:22 - > Row 2 - preparing for import.
02-24-2017 @ 16:36:22 - > Variation parent does not exist! (#1632)
02-24-2017 @ 16:36:22 - > Row 3 - preparing for import.
02-24-2017 @ 16:36:22 - > Variation parent does not exist! (#1632)
02-24-2017 @ 16:36:22 - > Row 4 - preparing for import.
02-24-2017 @ 16:36:22 - > Variation parent does not exist! (#1632)
02-24-2017 @ 16:36:22 - > Row 5 - preparing for import.
02-24-2017 @ 16:36:22 - > Variation parent does not exist! (#1632)
02-24-2017 @ 16:36:22 - > Row 6 - preparing for import.
02-24-2017 @ 16:36:22 - > Variation parent does not exist! (#1632)
02-24-2017 @ 16:36:22 - > Row 7 - preparing for import.
02-24-2017 @ 16:36:22 - > Variation parent does not exist! (#1632)
02-24-2017 @ 16:36:22 - > Row 8 - preparing for import.
02-24-2017 @ 16:36:22 - > Variation parent does not exist! (#1632)
02-24-2017 @ 16:36:22 - > Row 9 - preparing for import.
02-24-2017 @ 16:36:22 - > Variation parent does not exist! (#1632)
02-24-2017 @ 16:36:22 - > Row 10 - preparing for import.
02-24-2017 @ 16:36:22 - > Variation parent does not exist! (#1632)
02-24-2017 @ 16:36:22 - > Row 11 - preparing for import.
02-24-2017 @ 16:36:22 - > Variation parent does not exist! (#1632)
02-24-2017 @ 16:36:22 - Finished processing products.
02-24-2017 @ 16:38:03 - ---[ New Import ] PHP Memory: 256 MB, WP Memory: 256 MB
02-24-2017 @ 16:38:03 - Parsing products CSV.
02-24-2017 @ 16:38:03 - Finished parsing products CSV.
02-24-2017 @ 16:38:03 - ---
02-24-2017 @ 16:38:03 - Processing products.
02-24-2017 @ 16:38:03 - > Row 1 - preparing for import.
02-24-2017 @ 16:38:03 - > > Skipped. No post_title set for new product.
02-24-2017 @ 16:38:03 - > Row 2 - preparing for import.
02-24-2017 @ 16:38:03 - > > Skipped. No post_title set for new product.
02-24-2017 @ 16:38:03 - > Row 3 - preparing for import.
02-24-2017 @ 16:38:03 - > > Skipped. No post_title set for new product.
02-24-2017 @ 16:38:03 - > Row 4 - preparing for import.
02-24-2017 @ 16:38:03 - > > Skipped. No post_title set for new product.
02-24-2017 @ 16:38:03 - > Row 5 - preparing for import.
02-24-2017 @ 16:38:03 - > > Skipped. No post_title set for new product.
02-24-2017 @ 16:38:03 - > Row 6 - preparing for import.
02-24-2017 @ 16:38:03 - > > Skipped. No post_title set for new product.
02-24-2017 @ 16:38:03 - > Row 7 - preparing for import.
02-24-2017 @ 16:38:03 - > > Skipped. No post_title set for new product.
02-24-2017 @ 16:38:03 - > Row 8 - preparing for import.
02-24-2017 @ 16:38:03 - > > Skipped. No post_title set for new product.
02-24-2017 @ 16:38:03 - > Row 9 - preparing for import.
02-24-2017 @ 16:38:03 - > > Skipped. No post_title set for new product.
02-24-2017 @ 16:38:03 - > Row 10 - preparing for import.
02-24-2017 @ 16:38:03 - > > Skipped. No post_title set for new product.
02-24-2017 @ 16:38:03 - > Row 11 - preparing for import.
02-24-2017 @ 16:38:03 - > > Skipped. No post_title set for new product.
02-24-2017 @ 16:38:03 - > Row 12 - preparing for import.
02-24-2017 @ 16:38:03 - > > Skipped. No post_title set for new product.
02-24-2017 @ 16:38:03 - > Row 13 - preparing for import.
02-24-2017 @ 16:38:03 - > > Skipped. No post_title set for new product.
02-24-2017 @ 16:38:03 - > Row 14 - preparing for import.
02-24-2017 @ 16:38:03 - > > Skipped. No post_title set for new product.
02-24-2017 @ 16:38:03 - > Row 15 - preparing for import.
02-24-2017 @ 16:38:03 - > > Skipped. No post_title set for new product.
02-24-2017 @ 16:38:03 - > Row 16 - preparing for import.
02-24-2017 @ 16:38:03 - > > Skipped. No post_title set for new product.
02-24-2017 @ 16:38:03 - > Row 17 - preparing for import.
02-24-2017 @ 16:38:03 - > > Skipped. No post_title set for new product.
02-24-2017 @ 16:38:03 - > Row 18 - preparing for import.
02-24-2017 @ 16:38:03 - > > Skipped. No post_title set for new product.
02-24-2017 @ 16:38:03 - > Row 19 - preparing for import.
02-24-2017 @ 16:38:03 - > > Skipped. No post_title set for new product.
02-24-2017 @ 16:38:03 - Finished processing products.
02-24-2017 @ 16:38:05 - ---[ New Import ] PHP Memory: 256 MB, WP Memory: 256 MB
02-24-2017 @ 16:38:05 - Parsing products CSV.
02-24-2017 @ 16:38:05 - Finished parsing products CSV.
02-24-2017 @ 16:38:05 - ---
02-24-2017 @ 16:38:05 - Processing products.
02-24-2017 @ 16:38:05 - > Row 1 - preparing for import.
02-24-2017 @ 16:38:05 - > > Skipped. No post_title set for new product.
02-24-2017 @ 16:38:05 - > Row 2 - preparing for import.
02-24-2017 @ 16:38:05 - > > Skipped. No post_title set for new product.
02-24-2017 @ 16:38:05 - > Row 3 - preparing for import.
02-24-2017 @ 16:38:05 - > > Skipped. No post_title set for new product.
02-24-2017 @ 16:38:05 - > Row 4 - preparing for import.
02-24-2017 @ 16:38:05 - > > Skipped. No post_title set for new product.
02-24-2017 @ 16:38:05 - > Row 5 - preparing for import.
02-24-2017 @ 16:38:05 - > > Skipped. No post_title set for new product.
02-24-2017 @ 16:38:05 - > Row 6 - preparing for import.
02-24-2017 @ 16:38:05 - > > Skipped. No post_title set for new product.
02-24-2017 @ 16:38:05 - > Row 7 - preparing for import.
02-24-2017 @ 16:38:05 - > > Skipped. No post_title set for new product.
02-24-2017 @ 16:38:05 - > Row 8 - preparing for import.
02-24-2017 @ 16:38:05 - > > Skipped. No post_title set for new product.
02-24-2017 @ 16:38:05 - > Row 9 - preparing for import.
02-24-2017 @ 16:38:05 - > > Skipped. No post_title set for new product.
02-24-2017 @ 16:38:05 - > Row 10 - preparing for import.
02-24-2017 @ 16:38:05 - > > Skipped. No post_title set for new product.
02-24-2017 @ 16:38:05 - > Row 11 - preparing for import.
02-24-2017 @ 16:38:05 - > > Skipped. No post_title set for new product.
02-24-2017 @ 16:38:05 - > Row 12 - preparing for import.
02-24-2017 @ 16:38:05 - > > Skipped. No post_title set for new product.
02-24-2017 @ 16:38:05 - > Row 13 - preparing for import.
02-24-2017 @ 16:38:05 - > > Skipped. No post_title set for new product.
02-24-2017 @ 16:38:05 - > Row 14 - preparing for import.
02-24-2017 @ 16:38:05 - > > Skipped. No post_title set for new product.
02-24-2017 @ 16:38:05 - > Row 15 - preparing for import.
02-24-2017 @ 16:38:05 - > > Skipped. No post_title set for new product.
02-24-2017 @ 16:38:05 - > Row 16 - preparing for import.
02-24-2017 @ 16:38:05 - > > Skipped. No post_title set for new product.
02-24-2017 @ 16:38:05 - > Row 17 - preparing for import.
02-24-2017 @ 16:38:05 - > > Skipped. No post_title set for new product.
02-24-2017 @ 16:38:05 - > Row 18 - preparing for import.
02-24-2017 @ 16:38:05 - > > Skipped. No post_title set for new product.
02-24-2017 @ 16:38:05 - > Row 19 - preparing for import.
02-24-2017 @ 16:38:05 - > > Skipped. No post_title set for new product.
02-24-2017 @ 16:38:05 - > Row 20 - preparing for import.
02-24-2017 @ 16:38:05 - > > Skipped. No post_title set for new product.
02-24-2017 @ 16:38:05 - Finished processing products.
02-24-2017 @ 16:38:07 - ---[ New Import ] PHP Memory: 256 MB, WP Memory: 256 MB
02-24-2017 @ 16:38:07 - Parsing products CSV.
02-24-2017 @ 16:38:07 - Finished parsing products CSV.
02-24-2017 @ 16:38:07 - ---
02-24-2017 @ 16:38:07 - Processing products.
02-24-2017 @ 16:38:07 - > Row 1 - preparing for import.
02-24-2017 @ 16:38:07 - > > Skipped. No post_title set for new product.
02-24-2017 @ 16:38:07 - > Row 2 - preparing for import.
02-24-2017 @ 16:38:07 - > > Skipped. No post_title set for new product.
02-24-2017 @ 16:38:07 - > Row 3 - preparing for import.
02-24-2017 @ 16:38:07 - > > Skipped. No post_title set for new product.
02-24-2017 @ 16:38:07 - > Row 4 - preparing for import.
02-24-2017 @ 16:38:07 - > > Skipped. No post_title set for new product.
02-24-2017 @ 16:38:07 - > Row 5 - preparing for import.
02-24-2017 @ 16:38:07 - > > Skipped. No post_title set for new product.
02-24-2017 @ 16:38:07 - > Row 6 - preparing for import.
02-24-2017 @ 16:38:07 - > > Skipped. No post_title set for new product.
02-24-2017 @ 16:38:07 - > Row 7 - preparing for import.
02-24-2017 @ 16:38:07 - > > Skipped. No post_title set for new product.
02-24-2017 @ 16:38:07 - > Row 8 - preparing for import.
02-24-2017 @ 16:38:07 - > > Skipped. No post_title set for new product.
02-24-2017 @ 16:38:07 - > Row 9 - preparing for import.
02-24-2017 @ 16:38:07 - > > Skipped. No post_title set for new product.
02-24-2017 @ 16:38:07 - > Row 10 - preparing for import.
02-24-2017 @ 16:38:07 - > > Skipped. No post_title set for new product.
02-24-2017 @ 16:38:07 - > Row 11 - preparing for import.
02-24-2017 @ 16:38:07 - > > Skipped. No post_title set for new product.
02-24-2017 @ 16:38:07 - Finished processing products.
02-24-2017 @ 22:23:04 - Parsing product variations CSV.
02-24-2017 @ 22:23:04 - Finished parsing product variations CSV.
02-24-2017 @ 22:23:04 - ---
02-24-2017 @ 22:23:04 - Processing products.
02-24-2017 @ 22:23:04 - > Row 1 - preparing for import.
02-24-2017 @ 22:23:04 - > > (526) Term FOURNITURES DE BUREAU (product_cat) exists? Array
(
    [term_id] => 252
    [term_taxonomy_id] => 252
)

02-24-2017 @ 22:23:04 - > > (526) Term  ATTACHES &amp; FIXATIONS (product_cat) exists? Array
(
    [term_id] => 270
    [term_taxonomy_id] => 270
)

02-24-2017 @ 22:23:04 - > > (526) Term  - Agrafeuses &amp; Agrafes (product_cat) exists? Array
(
    [term_id] => 271
    [term_taxonomy_id] => 271
)

02-24-2017 @ 22:23:04 - > > (526) Term NOVUS (product_brand) exists? Array
(
    [term_id] => 424
    [term_taxonomy_id] => 424
)

02-24-2017 @ 22:23:04 - > > (526) Term Collection Harmony (product_brand) exists? Array
(
    [term_id] => 425
    [term_taxonomy_id] => 425
)

02-24-2017 @ 22:23:04 - > Skipping - no post parent set.
02-24-2017 @ 22:23:04 - > Row 2 - preparing for import.
02-24-2017 @ 22:23:04 - > Skipping - no post parent set.
02-24-2017 @ 22:23:04 - > Row 3 - preparing for import.
02-24-2017 @ 22:23:04 - > Skipping - no post parent set.
02-24-2017 @ 22:23:04 - > Row 4 - preparing for import.
02-24-2017 @ 22:23:04 - > Skipping - no post parent set.
02-24-2017 @ 22:23:04 - > Row 5 - preparing for import.
02-24-2017 @ 22:23:04 - > Skipping - no post parent set.
02-24-2017 @ 22:23:04 - > Row 6 - preparing for import.
02-24-2017 @ 22:23:04 - > Skipping - no post parent set.
02-24-2017 @ 22:23:04 - > Row 7 - preparing for import.
02-24-2017 @ 22:23:04 - > Skipping - no post parent set.
02-24-2017 @ 22:23:04 - > Row 8 - preparing for import.
02-24-2017 @ 22:23:04 - > Skipping - no post parent set.
02-24-2017 @ 22:23:04 - > Row 9 - preparing for import.
02-24-2017 @ 22:23:04 - > Skipping - no post parent set.
02-24-2017 @ 22:23:04 - > Row 10 - preparing for import.
02-24-2017 @ 22:23:04 - > Skipping - no post parent set.
02-24-2017 @ 22:23:04 - > Row 11 - preparing for import.
02-24-2017 @ 22:23:04 - > Skipping - no post parent set.
02-24-2017 @ 22:23:04 - > Row 12 - preparing for import.
02-24-2017 @ 22:23:04 - > Skipping - no post parent set.
02-24-2017 @ 22:23:04 - > Row 13 - preparing for import.
02-24-2017 @ 22:23:04 - > Skipping - no post parent set.
02-24-2017 @ 22:23:04 - > Row 14 - preparing for import.
02-24-2017 @ 22:23:04 - > Skipping - no post parent set.
02-24-2017 @ 22:23:04 - > Row 15 - preparing for import.
02-24-2017 @ 22:23:04 - > Skipping - no post parent set.
02-24-2017 @ 22:23:04 - > Row 16 - preparing for import.
02-24-2017 @ 22:23:04 - > Skipping - no post parent set.
02-24-2017 @ 22:23:04 - > Row 17 - preparing for import.
02-24-2017 @ 22:23:04 - > Skipping - no post parent set.
02-24-2017 @ 22:23:04 - > Row 18 - preparing for import.
02-24-2017 @ 22:23:04 - > Skipping - no post parent set.
02-24-2017 @ 22:23:04 - > Row 19 - preparing for import.
02-24-2017 @ 22:23:04 - > Skipping - no post parent set.
02-24-2017 @ 22:23:04 - Finished processing products.
02-24-2017 @ 22:23:06 - Parsing product variations CSV.
02-24-2017 @ 22:23:06 - Finished parsing product variations CSV.
02-24-2017 @ 22:23:06 - ---
02-24-2017 @ 22:23:06 - Processing products.
02-24-2017 @ 22:23:06 - > Row 1 - preparing for import.
02-24-2017 @ 22:23:06 - > > (526) Term FOURNITURES DE BUREAU (product_cat) exists? Array
(
    [term_id] => 252
    [term_taxonomy_id] => 252
)

02-24-2017 @ 22:23:06 - > > (526) Term  ATTACHES &amp; FIXATIONS (product_cat) exists? Array
(
    [term_id] => 270
    [term_taxonomy_id] => 270
)

02-24-2017 @ 22:23:06 - > > (526) Term  - Agrafeuses &amp; Agrafes (product_cat) exists? Array
(
    [term_id] => 271
    [term_taxonomy_id] => 271
)

02-24-2017 @ 22:23:06 - > > (526) Term NOVUS (product_brand) exists? Array
(
    [term_id] => 424
    [term_taxonomy_id] => 424
)

02-24-2017 @ 22:23:06 - > > (526) Term Collection Harmony (product_brand) exists? Array
(
    [term_id] => 425
    [term_taxonomy_id] => 425
)

02-24-2017 @ 22:23:06 - > Skipping - no post parent set.
02-24-2017 @ 22:23:06 - > Row 2 - preparing for import.
02-24-2017 @ 22:23:06 - > Skipping - no post parent set.
02-24-2017 @ 22:23:06 - > Row 3 - preparing for import.
02-24-2017 @ 22:23:06 - > Skipping - no post parent set.
02-24-2017 @ 22:23:06 - > Row 4 - preparing for import.
02-24-2017 @ 22:23:06 - > Skipping - no post parent set.
02-24-2017 @ 22:23:06 - > Row 5 - preparing for import.
02-24-2017 @ 22:23:06 - > Skipping - no post parent set.
02-24-2017 @ 22:23:06 - > Row 6 - preparing for import.
02-24-2017 @ 22:23:06 - > Skipping - no post parent set.
02-24-2017 @ 22:23:06 - > Row 7 - preparing for import.
02-24-2017 @ 22:23:06 - > Skipping - no post parent set.
02-24-2017 @ 22:23:06 - > Row 8 - preparing for import.
02-24-2017 @ 22:23:06 - > Skipping - no post parent set.
02-24-2017 @ 22:23:06 - Finished processing products.
02-24-2017 @ 22:24:37 - ---[ New Import ] PHP Memory: 256 MB, WP Memory: 256 MB
02-24-2017 @ 22:24:37 - Parsing products CSV.
02-24-2017 @ 22:24:37 - Finished parsing products CSV.
02-24-2017 @ 22:24:37 - ---
02-24-2017 @ 22:24:37 - Processing products.
02-24-2017 @ 22:24:37 - > Row 1 - preparing for import.
02-24-2017 @ 22:24:37 - > > (526) Term FOURNITURES DE BUREAU (product_cat) exists? Array
(
    [term_id] => 252
    [term_taxonomy_id] => 252
)

02-24-2017 @ 22:24:37 - > > (526) Term  ATTACHES &amp; FIXATIONS (product_cat) exists? Array
(
    [term_id] => 270
    [term_taxonomy_id] => 270
)

02-24-2017 @ 22:24:37 - > > (526) Term  - Agrafeuses &amp; Agrafes (product_cat) exists? Array
(
    [term_id] => 271
    [term_taxonomy_id] => 271
)

02-24-2017 @ 22:24:37 - > > (526) Term NOVUS (product_brand) exists? Array
(
    [term_id] => 424
    [term_taxonomy_id] => 424
)

02-24-2017 @ 22:24:37 - > > (526) Term Collection Harmony (product_brand) exists? Array
(
    [term_id] => 425
    [term_taxonomy_id] => 425
)

02-24-2017 @ 22:24:37 - > Inserting AGRAFEUSE
02-24-2017 @ 22:24:37 - > Inserted - post ID is 1725.
02-24-2017 @ 22:24:37 - > Finished importing post ID 1725.
02-24-2017 @ 22:24:37 - > Row 2 - preparing for import.
02-24-2017 @ 22:24:37 - > Inserting AGRAFEUSE
02-24-2017 @ 22:24:37 - > Inserted - post ID is 1726.
02-24-2017 @ 22:24:37 - > Finished importing post ID 1726.
02-24-2017 @ 22:24:37 - > Row 3 - preparing for import.
02-24-2017 @ 22:24:37 - > Inserting AGRAFEUSE
02-24-2017 @ 22:24:37 - > Inserted - post ID is 1727.
02-24-2017 @ 22:24:37 - > Finished importing post ID 1727.
02-24-2017 @ 22:24:37 - > Row 4 - preparing for import.
02-24-2017 @ 22:24:37 - > Inserting AGRAFEUSE
02-24-2017 @ 22:24:37 - > Inserted - post ID is 1728.
02-24-2017 @ 22:24:37 - > Finished importing post ID 1728.
02-24-2017 @ 22:24:37 - > Row 5 - preparing for import.
02-24-2017 @ 22:24:37 - > Inserting AGRAFEUSE
02-24-2017 @ 22:24:37 - > Inserted - post ID is 1729.
02-24-2017 @ 22:24:37 - > Finished importing post ID 1729.
02-24-2017 @ 22:24:37 - > Row 6 - preparing for import.
02-24-2017 @ 22:24:37 - > Inserting AGRAFEUSE
02-24-2017 @ 22:24:37 - > Inserted - post ID is 1730.
02-24-2017 @ 22:24:37 - > Finished importing post ID 1730.
02-24-2017 @ 22:24:37 - > Row 7 - preparing for import.
02-24-2017 @ 22:24:37 - > Inserting AGRAFEUSE
02-24-2017 @ 22:24:37 - > Inserted - post ID is 1731.
02-24-2017 @ 22:24:37 - > Finished importing post ID 1731.
02-24-2017 @ 22:24:37 - > Row 8 - preparing for import.
02-24-2017 @ 22:24:37 - > Inserting AGRAFEUSE
02-24-2017 @ 22:24:37 - > Inserted - post ID is 1732.
02-24-2017 @ 22:24:37 - > Finished importing post ID 1732.
02-24-2017 @ 22:24:37 - > Row 9 - preparing for import.
02-24-2017 @ 22:24:37 - > Inserting AGRAFEUSE
02-24-2017 @ 22:24:37 - > Inserted - post ID is 1733.
02-24-2017 @ 22:24:37 - > Finished importing post ID 1733.
02-24-2017 @ 22:24:37 - > Row 10 - preparing for import.
02-24-2017 @ 22:24:37 - > Inserting AGRAFEUSE
02-24-2017 @ 22:24:37 - > Inserted - post ID is 1734.
02-24-2017 @ 22:24:37 - > Finished importing post ID 1734.
02-24-2017 @ 22:24:37 - > Row 11 - preparing for import.
02-24-2017 @ 22:24:37 - > Inserting AGRAFEUSE
02-24-2017 @ 22:24:38 - > Inserted - post ID is 1735.
02-24-2017 @ 22:24:38 - > Finished importing post ID 1735.
02-24-2017 @ 22:24:38 - > Row 12 - preparing for import.
02-24-2017 @ 22:24:38 - > Inserting AGRAFEUSE
02-24-2017 @ 22:24:38 - > Inserted - post ID is 1736.
02-24-2017 @ 22:24:38 - > Finished importing post ID 1736.
02-24-2017 @ 22:24:38 - > Row 13 - preparing for import.
02-24-2017 @ 22:24:38 - > Inserting AGRAFEUSE
02-24-2017 @ 22:24:38 - > Inserted - post ID is 1737.
02-24-2017 @ 22:24:38 - > Finished importing post ID 1737.
02-24-2017 @ 22:24:38 - > Row 14 - preparing for import.
02-24-2017 @ 22:24:38 - > Inserting AGRAFEUSE
02-24-2017 @ 22:24:38 - > Inserted - post ID is 1738.
02-24-2017 @ 22:24:38 - > Finished importing post ID 1738.
02-24-2017 @ 22:24:38 - > Row 15 - preparing for import.
02-24-2017 @ 22:24:38 - > Inserting AGRAFEUSE
02-24-2017 @ 22:24:38 - > Inserted - post ID is 1739.
02-24-2017 @ 22:24:38 - > Finished importing post ID 1739.
02-24-2017 @ 22:24:38 - > Row 16 - preparing for import.
02-24-2017 @ 22:24:38 - > Inserting AGRAFEUSE
02-24-2017 @ 22:24:38 - > Inserted - post ID is 1740.
02-24-2017 @ 22:24:38 - > Finished importing post ID 1740.
02-24-2017 @ 22:24:38 - > Row 17 - preparing for import.
02-24-2017 @ 22:24:38 - > Inserting AGRAFEUSE
02-24-2017 @ 22:24:38 - > Inserted - post ID is 1741.
02-24-2017 @ 22:24:38 - > Finished importing post ID 1741.
02-24-2017 @ 22:24:38 - > Row 18 - preparing for import.
02-24-2017 @ 22:24:38 - > Inserting AGRAFEUSE
02-24-2017 @ 22:24:38 - > Inserted - post ID is 1742.
02-24-2017 @ 22:24:38 - > Finished importing post ID 1742.
02-24-2017 @ 22:24:38 - > Row 19 - preparing for import.
02-24-2017 @ 22:24:38 - > Inserting AGRAFEUSE
02-24-2017 @ 22:24:38 - > Inserted - post ID is 1743.
02-24-2017 @ 22:24:38 - > Finished importing post ID 1743.
02-24-2017 @ 22:24:38 - Finished processing products.
02-24-2017 @ 22:24:40 - ---[ New Import ] PHP Memory: 256 MB, WP Memory: 256 MB
02-24-2017 @ 22:24:40 - Parsing products CSV.
02-24-2017 @ 22:24:40 - Finished parsing products CSV.
02-24-2017 @ 22:24:40 - ---
02-24-2017 @ 22:24:40 - Processing products.
02-24-2017 @ 22:24:40 - > Row 1 - preparing for import.
02-24-2017 @ 22:24:40 - > > (526) Term FOURNITURES DE BUREAU (product_cat) exists? Array
(
    [term_id] => 252
    [term_taxonomy_id] => 252
)

02-24-2017 @ 22:24:40 - > > (526) Term  ATTACHES &amp; FIXATIONS (product_cat) exists? Array
(
    [term_id] => 270
    [term_taxonomy_id] => 270
)

02-24-2017 @ 22:24:40 - > > (526) Term  - Agrafeuses &amp; Agrafes (product_cat) exists? Array
(
    [term_id] => 271
    [term_taxonomy_id] => 271
)

02-24-2017 @ 22:24:40 - > > (526) Term NOVUS (product_brand) exists? Array
(
    [term_id] => 424
    [term_taxonomy_id] => 424
)

02-24-2017 @ 22:24:40 - > > (526) Term Collection Harmony (product_brand) exists? Array
(
    [term_id] => 425
    [term_taxonomy_id] => 425
)

02-24-2017 @ 22:24:40 - > Inserting AGRAFEUSE
02-24-2017 @ 22:24:40 - > Inserted - post ID is 1744.
02-24-2017 @ 22:24:40 - > Finished importing post ID 1744.
02-24-2017 @ 22:24:40 - > Row 2 - preparing for import.
02-24-2017 @ 22:24:40 - > Inserting AGRAFEUSE
02-24-2017 @ 22:24:40 - > Inserted - post ID is 1745.
02-24-2017 @ 22:24:40 - > Finished importing post ID 1745.
02-24-2017 @ 22:24:40 - > Row 3 - preparing for import.
02-24-2017 @ 22:24:40 - > Inserting AGRAFEUSE
02-24-2017 @ 22:24:40 - > Inserted - post ID is 1746.
02-24-2017 @ 22:24:40 - > Finished importing post ID 1746.
02-24-2017 @ 22:24:40 - > Row 4 - preparing for import.
02-24-2017 @ 22:24:40 - > Inserting AGRAFEUSE
02-24-2017 @ 22:24:40 - > Inserted - post ID is 1747.
02-24-2017 @ 22:24:40 - > Finished importing post ID 1747.
02-24-2017 @ 22:24:40 - > Row 5 - preparing for import.
02-24-2017 @ 22:24:40 - > Inserting AGRAFEUSE
02-24-2017 @ 22:24:40 - > Inserted - post ID is 1748.
02-24-2017 @ 22:24:40 - > Finished importing post ID 1748.
02-24-2017 @ 22:24:40 - > Row 6 - preparing for import.
02-24-2017 @ 22:24:40 - > Inserting AGRAFEUSE
02-24-2017 @ 22:24:40 - > Inserted - post ID is 1749.
02-24-2017 @ 22:24:40 - > Finished importing post ID 1749.
02-24-2017 @ 22:24:40 - > Row 7 - preparing for import.
02-24-2017 @ 22:24:40 - > Inserting AGRAFEUSE
02-24-2017 @ 22:24:40 - > Inserted - post ID is 1750.
02-24-2017 @ 22:24:40 - > Finished importing post ID 1750.
02-24-2017 @ 22:24:40 - > Row 8 - preparing for import.
02-24-2017 @ 22:24:40 - > Inserting AGRAFEUSE
02-24-2017 @ 22:24:40 - > Inserted - post ID is 1751.
02-24-2017 @ 22:24:40 - > Finished importing post ID 1751.
02-24-2017 @ 22:24:40 - Finished processing products.
02-24-2017 @ 22:40:15 - Parsing product variations CSV.
02-24-2017 @ 22:40:15 - Finished parsing product variations CSV.
02-24-2017 @ 22:40:15 - ---
02-24-2017 @ 22:40:15 - Processing products.
02-24-2017 @ 22:40:15 - > Row 1 - preparing for import.
02-24-2017 @ 22:40:15 - > Variation parent does not exist! (#1494)
02-24-2017 @ 22:40:15 - > Row 2 - preparing for import.
02-24-2017 @ 22:40:15 - > Variation parent does not exist! (#1494)
02-24-2017 @ 22:40:15 - > Row 3 - preparing for import.
02-24-2017 @ 22:40:15 - > Variation parent does not exist! (#1494)
02-24-2017 @ 22:40:15 - > Row 4 - preparing for import.
02-24-2017 @ 22:40:15 - > Variation parent does not exist! (#1494)
02-24-2017 @ 22:40:15 - > Row 5 - preparing for import.
02-24-2017 @ 22:40:15 - > Variation parent does not exist! (#1569)
02-24-2017 @ 22:40:15 - > Row 6 - preparing for import.
02-24-2017 @ 22:40:15 - > Variation parent does not exist! (#1569)
02-24-2017 @ 22:40:15 - > Row 7 - preparing for import.
02-24-2017 @ 22:40:15 - > Variation parent does not exist! (#1569)
02-24-2017 @ 22:40:15 - > Row 8 - preparing for import.
02-24-2017 @ 22:40:15 - > Variation parent does not exist! (#1569)
02-24-2017 @ 22:40:15 - Finished processing products.
02-24-2017 @ 22:41:34 - ---[ New Import ] PHP Memory: 256 MB, WP Memory: 256 MB
02-24-2017 @ 22:41:34 - Parsing products CSV.
02-24-2017 @ 22:41:35 - Finished parsing products CSV.
02-24-2017 @ 22:41:35 - ---
02-24-2017 @ 22:41:35 - Processing products.
02-24-2017 @ 22:41:35 - > Row 1 - preparing for import.
02-24-2017 @ 22:41:35 - > > Skipped. No post_title set for new product.
02-24-2017 @ 22:41:35 - > Row 2 - preparing for import.
02-24-2017 @ 22:41:35 - > > Skipped. No post_title set for new product.
02-24-2017 @ 22:41:35 - > Row 3 - preparing for import.
02-24-2017 @ 22:41:35 - > > Skipped. No post_title set for new product.
02-24-2017 @ 22:41:35 - > Row 4 - preparing for import.
02-24-2017 @ 22:41:35 - > > Skipped. No post_title set for new product.
02-24-2017 @ 22:41:35 - > Row 5 - preparing for import.
02-24-2017 @ 22:41:35 - > > Skipped. No post_title set for new product.
02-24-2017 @ 22:41:35 - > Row 6 - preparing for import.
02-24-2017 @ 22:41:35 - > > Skipped. No post_title set for new product.
02-24-2017 @ 22:41:35 - > Row 7 - preparing for import.
02-24-2017 @ 22:41:35 - > > Skipped. No post_title set for new product.
02-24-2017 @ 22:41:35 - > Row 8 - preparing for import.
02-24-2017 @ 22:41:35 - > > Skipped. No post_title set for new product.
02-24-2017 @ 22:41:35 - Finished processing products.
02-25-2017 @ 09:19:25 - ---[ New Import ] PHP Memory: 256 MB, WP Memory: 256 MB
02-25-2017 @ 09:19:25 - Parsing products CSV.
02-25-2017 @ 09:19:25 - Finished parsing products CSV.
02-25-2017 @ 09:19:25 - ---
02-25-2017 @ 09:19:25 - Processing products.
02-25-2017 @ 09:19:25 - > Row 1 - preparing for import.
02-25-2017 @ 09:19:25 - > > (526) Term NOVUS (product_brand) exists? Array
(
    [term_id] => 424
    [term_taxonomy_id] => 424
)

02-25-2017 @ 09:19:25 - > > (526) Term Collection Harmony (product_brand) exists? Array
(
    [term_id] => 425
    [term_taxonomy_id] => 425
)

02-25-2017 @ 09:19:25 - > > (526) Term Fournitures de bureau (product_cat) exists? Array
(
    [term_id] => 252
    [term_taxonomy_id] => 252
)

02-25-2017 @ 09:19:25 - > > (526) Term ATTACHES &amp; FIXATIONS (product_cat) exists? Array
(
    [term_id] => 270
    [term_taxonomy_id] => 270
)

02-25-2017 @ 09:19:25 - > > (526) Term - Agrafeuses &amp; Agrafes (product_cat) exists? Array
(
    [term_id] => 271
    [term_taxonomy_id] => 271
)

02-25-2017 @ 09:19:25 - > > Raw Term blanc ID = 415
02-25-2017 @ 09:19:25 - > > Raw Term BLEU ID = 408
02-25-2017 @ 09:19:25 - > > Raw Term GRIS ID = 410
02-25-2017 @ 09:19:25 - > > Raw Term NOIRE ID = 406
02-25-2017 @ 09:19:25 - > > Raw Term ROUGE ID = 409
02-25-2017 @ 09:19:25 - > Inserting AGRAFEUSE
02-25-2017 @ 09:19:25 - > Inserted - post ID is 1782.
02-25-2017 @ 09:19:25 - > Finished importing post ID 1782.
02-25-2017 @ 09:19:25 - Finished processing products.
02-25-2017 @ 09:22:07 - Parsing product variations CSV.
02-25-2017 @ 09:22:07 - Finished parsing product variations CSV.
02-25-2017 @ 09:22:07 - ---
02-25-2017 @ 09:22:07 - Processing products.
02-25-2017 @ 09:22:07 - > Row 1 - preparing for import.
02-25-2017 @ 09:22:07 - > Inserting variation.
02-25-2017 @ 09:22:07 - > Inserted - post ID is 1783.
02-25-2017 @ 09:22:07 - > Finished importing variation ID 1783.
02-25-2017 @ 09:22:07 - > Row 2 - preparing for import.
02-25-2017 @ 09:22:07 - > Inserting variation.
02-25-2017 @ 09:22:07 - > Inserted - post ID is 1784.
02-25-2017 @ 09:22:08 - > Finished importing variation ID 1784.
02-25-2017 @ 09:22:08 - > Row 3 - preparing for import.
02-25-2017 @ 09:22:08 - > Inserting variation.
02-25-2017 @ 09:22:08 - > Inserted - post ID is 1785.
02-25-2017 @ 09:22:08 - > Finished importing variation ID 1785.
02-25-2017 @ 09:22:08 - > Row 4 - preparing for import.
02-25-2017 @ 09:22:08 - > Inserting variation.
02-25-2017 @ 09:22:08 - > Inserted - post ID is 1786.
02-25-2017 @ 09:22:08 - > Finished importing variation ID 1786.
02-25-2017 @ 09:22:08 - > Row 5 - preparing for import.
02-25-2017 @ 09:22:08 - > Inserting variation.
02-25-2017 @ 09:22:08 - > Inserted - post ID is 1787.
02-25-2017 @ 09:22:08 - > Finished importing variation ID 1787.
02-25-2017 @ 09:22:08 - Finished processing products.
02-25-2017 @ 09:29:25 - Parsing product variations CSV.
02-25-2017 @ 09:29:25 - Finished parsing product variations CSV.
02-25-2017 @ 09:29:25 - ---
02-25-2017 @ 09:29:25 - Processing products.
02-25-2017 @ 09:29:25 - > Row 1 - preparing for merge.
02-25-2017 @ 09:29:25 - > Merging post ID 1783.
02-25-2017 @ 09:29:25 - > Merged post data: Array
(
    [ID] => 1783
    [post_status] => publish
    [post_parent] => 1782
)

02-25-2017 @ 09:29:25 - > Finished merging variation ID 1783.
02-25-2017 @ 09:29:25 - > Row 2 - preparing for merge.
02-25-2017 @ 09:29:25 - > Merging post ID 1784.
02-25-2017 @ 09:29:25 - > Merged post data: Array
(
    [ID] => 1784
    [post_status] => publish
    [post_parent] => 1782
)

02-25-2017 @ 09:29:25 - > Finished merging variation ID 1784.
02-25-2017 @ 09:29:25 - > Row 3 - preparing for merge.
02-25-2017 @ 09:29:25 - > Merging post ID 1785.
02-25-2017 @ 09:29:25 - > Merged post data: Array
(
    [ID] => 1785
    [post_status] => publish
    [post_parent] => 1782
)

02-25-2017 @ 09:29:25 - > Finished merging variation ID 1785.
02-25-2017 @ 09:29:25 - > Row 4 - preparing for merge.
02-25-2017 @ 09:29:25 - > Merging post ID 1786.
02-25-2017 @ 09:29:25 - > Merged post data: Array
(
    [ID] => 1786
    [post_status] => publish
    [post_parent] => 1782
)

02-25-2017 @ 09:29:25 - > Finished merging variation ID 1786.
02-25-2017 @ 09:29:25 - > Row 5 - preparing for merge.
02-25-2017 @ 09:29:25 - > Merging post ID 1787.
02-25-2017 @ 09:29:25 - > Merged post data: Array
(
    [ID] => 1787
    [post_status] => publish
    [post_parent] => 1782
)

02-25-2017 @ 09:29:25 - > Finished merging variation ID 1787.
02-25-2017 @ 09:29:25 - Finished processing products.
02-25-2017 @ 11:10:49 - Parsing product variations CSV.
02-25-2017 @ 11:10:49 - Finished parsing product variations CSV.
02-25-2017 @ 11:10:49 - ---
02-25-2017 @ 11:10:49 - Processing products.
02-25-2017 @ 11:10:49 - > Row 1 - preparing for import.
02-25-2017 @ 11:10:49 - > Skipping - no post parent set.
02-25-2017 @ 11:10:49 - > Row 2 - preparing for import.
02-25-2017 @ 11:10:49 - > Skipping - no post parent set.
02-25-2017 @ 11:10:49 - > Row 3 - preparing for import.
02-25-2017 @ 11:10:49 - > Skipping - no post parent set.
02-25-2017 @ 11:10:49 - > Row 4 - preparing for import.
02-25-2017 @ 11:10:49 - > Skipping - no post parent set.
02-25-2017 @ 11:10:49 - > Row 5 - preparing for import.
02-25-2017 @ 11:10:49 - > Skipping - no post parent set.
02-25-2017 @ 11:10:49 - > Row 6 - preparing for import.
02-25-2017 @ 11:10:49 - > Skipping - no post parent set.
02-25-2017 @ 11:10:49 - Finished processing products.
