"Parent","parent_sku","post_parent","ID","post_status","menu_order","sku","downloadable","virtual","stock","stock_status","regular_price","sale_price","weight","length","width","height","tax_class","variation_description","file_path","file_paths","download_limit","images","downloadable_files","tax:product_shipping_class","meta:attribute_color","meta:attribute_pa_color","meta:attribute_pa_couleur","meta:attribute_pa_model","meta:attribute_pa_pack","meta:attribute_size","meta:enbable_variations_table_img","meta:override_extra_image","meta:vartable_qty_default","meta:vartable_qty_step","meta:vt_variation_description"
"AGRAFEUSE","5001.001.010001","1494","1517","publish","0","5001.001.020001","no","no","0.000000","instock","7.6","","","","","","","","","","","","","","","","noire","c2","20","","","","","",""
"AGRAFEUSE","5001.001.010001","1494","1519","publish","0","5001.001.020002","no","no","","instock","7.6","","","","","","","","","","","","","","","","bleu","c2","50","","","","","",""
"AGRAFEUSE","5001.001.010001","1494","1521","publish","0","","no","no","","instock","6.800","","","","","","","Lorem ipsum dolor sit amet,sed diam nonumy eirmod tempor olor","","","","","","","","","noire","c1","50","","","","","",""
"AGRAFEUSE","5001.001.010001","1494","1523","publish","0","","no","no","7.000000","instock","255","","","","","","","Lorem ipsum dolor sit amet,sed diam nonumy eirmod tempor invidunt ut labore et dolore magna aliquyam erat,  At vero eos et accusam et justo duo dolores et ea rebum.  Lorem ipsum dolor sit amet,  no sea takimata sanctus est Lorem ipsum dolor","","","","http://lassaad.sabdeladhim.ovh/wp-content/uploads/2017/01/station-de-recharge-schneider-maxx-665-bleu.jpg","","","","","bleu","c1","20","","yes","http://lassaad.sabdeladhim.ovh/wp-content/uploads/2012/11/novus-b4-compact-executive-professional-stapler-black-image-9-e1486737892274.gif","","",""
"AGRAFEUSE","","1569","1573","publish","0","","no","no","0.000000","instock","7.6","","","","","","","","","","","","","","","","noire","c2","20","","","","","",""
"AGRAFEUSE","","1569","1572","publish","0","","no","no","","instock","7.6","","","","","","","","","","","","","","","","bleu","c2","50","","","","","",""
"AGRAFEUSE","","1569","1571","publish","0","","no","no","7.000000","instock","255","","","","","","","Lorem ipsum dolor sit amet,sed diam nonumy eirmod tempor invidunt ut labore et dolore magna aliquyam erat,  At vero eos et accusam et justo duo dolores et ea rebum.  Lorem ipsum dolor sit amet,  no sea takimata sanctus est Lorem ipsum dolor","","","","http://lassaad.sabdeladhim.ovh/wp-content/uploads/2017/01/station-de-recharge-schneider-maxx-665-bleu.jpg","","","","","bleu","c1","20","","yes","http://lassaad.sabdeladhim.ovh/wp-content/uploads/2012/11/novus-b4-compact-executive-professional-stapler-black-image-9-e1486737892274.gif","","",""
"AGRAFEUSE","","1569","1570","publish","0","","no","no","","instock","6.800","","","","","","","Lorem ipsum dolor sit amet,sed diam nonumy eirmod tempor olor","","","","","","","","","noire","c1","50","","","","","",""
"High Heel Shoe","12345","1631","1679","publish","0","","","","","instock","","","","","","","","","","","","","","","Black","","","","","US 8","","","","",""
"High Heel Shoe","12345","1631","1668","publish","0","","","","","instock","","","","","","","","","","","","","","","White","","","","","US 10.5","","","","",""
"High Heel Shoe","12345","1631","1669","publish","0","","","","","instock","","","","","","","","","","","","","","","Black","","","","","US 10.5","","","","",""
"High Heel Shoe","12345","1631","1670","publish","0","","","","","instock","","","","","","","","","","","","","","","White","","","","","US 10","","","","",""
"High Heel Shoe","12345","1631","1671","publish","0","","","","","instock","","","","","","","","","","","","","","","Black","","","","","US 10","","","","",""
"High Heel Shoe","12345","1631","1673","publish","0","","","","","instock","","","","","","","","","","","","","","","Black","","","","","US 9.5","","","","",""
"High Heel Shoe","12345","1631","1674","publish","0","","","","","instock","","","","","","","","","","","","","","","White","","","","","US 9","","","","",""
"High Heel Shoe","12345","1631","1675","publish","0","","","","","instock","","","","","","","","","","","","","","","Black","","","","","US 9","","","","",""
"High Heel Shoe","12345","1631","1676","publish","0","","","","","instock","","","","","","","","","","","","","","","White","","","","","US 8.5","","","","",""
"High Heel Shoe","12345","1631","1677","publish","0","","","","","instock","","","","","","","","","","","","","","","Black","","","","","US 8.5","","","","",""
"High Heel Shoe","12345","1631","1678","publish","0","","","","","instock","","","","","","","","","","","","","","","White","","","","","US 8","","","","",""
"High Heel Shoe","12345","1631","1672","publish","0","","","","","instock","","","","","","","","","","","","","","","White","","","","","US 9.5","","","","",""
"Running Shoe","12346","1632","1646","publish","0","","","","","instock","","","","","","","","","","","","","","","Blue","","","","","US 10","","","","",""
"Running Shoe","12346","1632","1662","publish","0","","","","","instock","","","","","","","","","","","","","","","Red","","","","","US 7.5","","","","",""
"Running Shoe","12346","1632","1663","publish","0","","","","","instock","","","","","","","","","","","","","","","Black","","","","","US 7.5","","","","",""
"Running Shoe","12346","1632","1643","publish","0","","","","","instock","","","","","","","","","","","","","","","Blue","","","","","US 10.5","","","","",""
"Running Shoe","12346","1632","1642","publish","0","","","","","instock","","","","","","","","","","","","","","","Black","","","","","US 11","","","","",""
"Running Shoe","12346","1632","1641","publish","0","","","","","instock","","","","","","","","","","","","","","","Red","","","","","US 11","","","","",""
"Running Shoe","12346","1632","1640","publish","0","","","","","instock","","","","","","","","","","","","","","","Blue","","","","","US 11","","","","",""
"Running Shoe","12346","1632","1647","publish","0","","","","","instock","","","","","","","","","","","","","","","Red","","","","","US 10","","","","",""
"Running Shoe","12346","1632","1639","publish","0","","","","","instock","","","","","","","","","","","","","","","Black","","","","","US 11.5","","","","",""
"Running Shoe","12346","1632","1638","publish","0","","","","","instock","","","","","","","","","","","","","","","Red","","","","","US 11.5","","","","",""
"Running Shoe","12346","1632","1637","publish","0","","","","","instock","","","","","","","","","","","","","","","Blue","","","","","US 11.5","","","","",""
"Running Shoe","12346","1632","1636","publish","0","","","","","instock","","","","","","","","","","","","","","","Black","","","","","US 12","","","","",""
"Running Shoe","12346","1632","1635","publish","0","","","","","instock","","","","","","","","","","","","","","","Red","","","","","US 12","","","","",""
"Running Shoe","12346","1632","1634","publish","0","","","","","instock","","","","","","","","","","","","","","","Blue","","","","","US 12","","","","",""
"Running Shoe","12346","1632","1644","publish","0","","","","","instock","","","","","","","","","","","","","","","Red","","","","","US 10.5","","","","",""
"Running Shoe","12346","1632","1660","publish","0","","","","","instock","","","","","","","","","","","","","","","Black","","","","","US 8","","","","",""
"Running Shoe","12346","1632","1645","publish","0","","","","","instock","","","","","","","","","","","","","","","Black","","","","","US 10.5","","","","",""
"Running Shoe","12346","1632","1648","publish","0","","","","","instock","","","","","","","","","","","","","","","Black","","","","","US 10","","","","",""
"Running Shoe","12346","1632","1649","publish","0","","","","","instock","","","","","","","","","","","","","","","Blue","","","","","US 9.5","","","","",""
"Running Shoe","12346","1632","1650","publish","0","","","","","instock","","","","","","","","","","","","","","","Red","","","","","US 9.5","","","","",""
"Running Shoe","12346","1632","1651","publish","0","","","","","instock","","","","","","","","","","","","","","","Black","","","","","US 9.5","","","","",""
"Running Shoe","12346","1632","1652","publish","0","","","","","instock","","","","","","","","","","","","","","","Blue","","","","","US 9","","","","",""
"Running Shoe","12346","1632","1653","publish","0","","","","","instock","","","","","","","","","","","","","","","Red","","","","","US 9","","","","",""
"Running Shoe","12346","1632","1654","publish","0","","","","","instock","","","","","","","","","","","","","","","Black","","","","","US 9","","","","",""
"Running Shoe","12346","1632","1655","publish","0","","","","","instock","","","","","","","","","","","","","","","Blue","","","","","US 8.5","","","","",""
"Running Shoe","12346","1632","1656","publish","0","","","","","instock","","","","","","","","","","","","","","","Red","","","","","US 8.5","","","","",""
"Running Shoe","12346","1632","1657","publish","0","","","","","instock","","","","","","","","","","","","","","","Black","","","","","US 8.5","","","","",""
"Running Shoe","12346","1632","1658","publish","0","","","","","instock","","","","","","","","","","","","","","","Blue","","","","","US 8","","","","",""
"Running Shoe","12346","1632","1659","publish","0","","","","","instock","","","","","","","","","","","","","","","Red","","","","","US 8","","","","",""
"Running Shoe","12346","1632","1661","publish","0","","","","","instock","","","","","","","","","","","","","","","Blue","","","","","US 7.5","","","","",""
